{
    "/employees/css/employees.min.css": "/employees/css/employees.min.css?id=68b329da9893e34099c7",
    "/employees/js/employees.js": "/employees/js/employees.js?id=0ba13ab65a3e92038408",
    "/js/EmployeeDashboard.js": "/js/EmployeeDashboard.js?id=d8b2e8de8803a2ee90d8",
    "/js/EmployeeAccount.js": "/js/EmployeeAccount.js?id=afe0e07bab3da3c562b4",
    "/js/Avatar.js": "/js/Avatar.js?id=95e1ef281568158fcae1",
    "/js/UserInfoForm.js": "/js/UserInfoForm.js?id=cf1b37c2d9e57adc3fd8",
    "/js/ChangePassword.js": "/js/ChangePassword.js?id=368e55fb8396b47e0e3c",
    "/js/EmployeeDetails.js": "/js/EmployeeDetails.js?id=616a49b383d48a1c0414",
    "/employees/css/employees.css": "/employees/css/employees.css?id=68b329da9893e34099c7",
    "/js/app.js": "/js/app.js?id=4b5fdd8c704f44883236",
    "/js/manifest.js": "/js/manifest.js?id=f095dc828993e6642c24",
    "/js/Loader.js": "/js/Loader.js?id=c1750d7e5171ab3c5252",
    "/js/MailingList.js": "/js/MailingList.js?id=811fbe2d0e8e121cbaae",
    "/js/BlogIndex.js": "/js/BlogIndex.js?id=8621c020740a512925d1",
    "/js/BlogShow.js": "/js/BlogShow.js?id=961cae6b07092883dc39",
    "/js/EmployeesSearch.js": "/js/EmployeesSearch.js?id=ec14e1092cf1d97e40c8",
    "/js/EmployeesShow.js": "/js/EmployeesShow.js?id=db5b7a847ea4177b9444",
    "/js/EmployeesCard.js": "/js/EmployeesCard.js?id=77782c2d2ddc86d8a482",
    "/js/EmployeesProfile.js": "/js/EmployeesProfile.js?id=a81cf4ee645604558ad5",
    "/js/EmployeesSummary.js": "/js/EmployeesSummary.js?id=190fb8d0580de0d86201",
    "/js/EmployeesFavouriteToggle.js": "/js/EmployeesFavouriteToggle.js?id=e8f823e767c9f6a03958",
    "/js/EmployeesEnquire.js": "/js/EmployeesEnquire.js?id=a74ac0827e8385e434f2",
    "/js/EmployeesSimilar.js": "/js/EmployeesSimilar.js?id=d005d7829210e637c864",
    "/js/ContactPageForm.js": "/js/ContactPageForm.js?id=db62b311dc91193549bd",
    "/js/SignupIndex.js": "/js/SignupIndex.js?id=1c36fb7ead0d1ee388ed",
    "/js/Countries.js": "/js/Countries.js?id=656af6375df7082f97cd",
    "/js/Footer.js": "/js/Footer.js?id=9fa418de1d29633a95d1",
    "/js/AccountType.js": "/js/AccountType.js?id=6990640fa8f2b63c83dc",
    "/js/PersonalDetails.js": "/js/PersonalDetails.js?id=b28dce7352353db8769e",
    "/js/AddressDetails.js": "/js/AddressDetails.js?id=cf42841f25d39e295b97",
    "/js/SignupEmployeeDetails.js": "/js/SignupEmployeeDetails.js?id=080197400c4f627282b4",
    "/js/SignupEmployerDetails.js": "/js/SignupEmployerDetails.js?id=f0b2ab03ed775ae8b97c",
    "/js/SelectAvatar.js": "/js/SelectAvatar.js?id=c85e438d5ab600dc3724",
    "/css/app.css": "/css/app.css?id=6ceb86163b638324c165",
    "/js/vendor.js": "/js/vendor.js?id=98ea13ae1f32788596b9",
    "/css/app.min.css": "/css/app.min.css?id=6ceb86163b638324c165",
    "/employers/js/employers.js": "/employers/js/employers.js?id=86f5695403528097037e",
    "/js/Dashboard.js": "/js/Dashboard.js?id=033c635b30e4660567a7",
    "/js/Favourites.js": "/js/Favourites.js?id=7c0a26328e73027fd5af",
    "/js/Enquiries.js": "/js/Enquiries.js?id=ee6ba4468d4248ad0524",
    "/js/Account.js": "/js/Account.js?id=667ee36e356576ebd566",
    "/js/dashboardHeader.js": "/js/dashboardHeader.js?id=e9d8cf6ce473626c9c10",
    "/js/dashboardSection1.js": "/js/dashboardSection1.js?id=093a9b384fcd2b037e4c",
    "/js/dashboardSection2.js": "/js/dashboardSection2.js?id=6e13c1451e3b5cd8a425",
    "/js/dashboardSection3.js": "/js/dashboardSection3.js?id=eb51c5bb8f6a285adabb",
    "/js/dashboardSection4.js": "/js/dashboardSection4.js?id=5729f5649e8e531b064c",
    "/js/EmployeeAvatar.js": "/js/EmployeeAvatar.js?id=2da16a8dd089df95d974",
    "/js/EmployeeUserInfoForm.js": "/js/EmployeeUserInfoForm.js?id=e6f147a500c7d60a9b91",
    "/js/EmployeeChangePassword.js": "/js/EmployeeChangePassword.js?id=17646cec5efda47f9053",
    "/js/EmployerDetails.js": "/js/EmployerDetails.js?id=8413b108c14753f61748",
    "/js/favouriteCard.js": "/js/favouriteCard.js?id=23aa288026996d12179f",
    "/employers/css/employers.css": "/employers/css/employers.css?id=68b329da9893e34099c7",
    "/employers/css/employers.min.css": "/employers/css/employers.min.css?id=68b329da9893e34099c7"
}
