<svg xmlns="http://www.w3.org/2000/svg" width="169.622" height="22.696" viewBox="0 0 169.622 22.696">
  <g id="Group_365" data-name="Group 365" transform="translate(-598.806 -5587.466)">
    <path id="Path_215" data-name="Path 215" d="M112.7,81.848A11.348,11.348,0,1,1,101.348,70.5,11.348,11.348,0,0,1,112.7,81.848" transform="translate(508.806 5516.967)" fill="#d9222a"/>
    <path id="Path_216" data-name="Path 216" d="M346.117,70.5a11.306,11.306,0,0,0-7.618,2.938,11.539,11.539,0,0,0-1.146,1.2h2.293a11.51,11.51,0,0,1,.865,1.2h-4.023a11.323,11.323,0,0,0-.654,1.2h5.33a11.326,11.326,0,0,1,.481,1.2h-6.291a11.2,11.2,0,0,0-.33,1.2h6.95a11.408,11.408,0,0,1-.329,6.008h-6.291a11.21,11.21,0,0,0,.48,1.2h5.33a11.335,11.335,0,0,1-.654,1.2h-4.022a11.454,11.454,0,0,0,.865,1.2h2.292a11.334,11.334,0,0,1-1.146,1.2A11.348,11.348,0,1,0,346.117,70.5" transform="translate(279.271 5516.97)" fill="#ee9f2d"/>
    <path id="Path_217" data-name="Path 217" d="M137.144,215.436a.366.366,0,1,1,.366.367A.367.367,0,0,1,137.144,215.436Zm.366.279a.279.279,0,0,0,0-.557h0a.278.278,0,0,0-.278.278h0a.278.278,0,0,0,.278.279Zm-.049-.118h-.075v-.322h.136a.147.147,0,0,1,.082.016.1.1,0,0,1,.041.081.088.088,0,0,1-.056.083l.059.142h-.083l-.049-.128h-.055Zm0-.183h.042a.093.093,0,0,0,.046-.006.044.044,0,0,0,.019-.037.04.04,0,0,0-.018-.033.1.1,0,0,0-.048-.006h-.04v.082Zm-28.037-5.061a2.05,2.05,0,0,0-.275-.019c-.7,0-1.052.239-1.052.712a.43.43,0,0,0,.442.477c.5,0,.863-.478.885-1.17Zm.9,2.086H109.3l.023-.485a1.546,1.546,0,0,1-1.291.566,1.152,1.152,0,0,1-1.126-1.279c0-1.139.8-1.8,2.163-1.8a4.149,4.149,0,0,1,.5.036,1.151,1.151,0,0,0,.048-.3c0-.31-.215-.426-.79-.426a4.085,4.085,0,0,0-1.3.211c.013-.078.171-1.053.171-1.053a4.913,4.913,0,0,1,1.475-.248c1.058,0,1.618.475,1.617,1.373a5.983,5.983,0,0,1-.1.927c-.107.679-.336,2.132-.368,2.486Zm-3.929,0h-1.232l.706-4.425-1.576,4.425h-.839l-.1-4.4-.742,4.4H101.45l.963-5.756h1.771l.107,3.222,1.081-3.222h1.97l-.953,5.756m22.44-2.086a2.04,2.04,0,0,0-.274-.019c-.7,0-1.052.239-1.052.712a.43.43,0,0,0,.441.477c.5,0,.864-.478.885-1.17Zm.9,2.086h-1.021l.023-.485a1.546,1.546,0,0,1-1.291.566,1.151,1.151,0,0,1-1.125-1.279c0-1.139.8-1.8,2.163-1.8a4.14,4.14,0,0,1,.5.036,1.151,1.151,0,0,0,.048-.3c0-.31-.214-.426-.79-.426a4.092,4.092,0,0,0-1.3.211c.013-.078.171-1.053.171-1.053a4.911,4.911,0,0,1,1.474-.248c1.058,0,1.619.475,1.618,1.373a5.992,5.992,0,0,1-.1.927c-.106.679-.336,2.132-.367,2.486Zm-13.933-.071a2.814,2.814,0,0,1-.885.152.9.9,0,0,1-.973-1.028,10.765,10.765,0,0,1,.169-1.248c.071-.437.534-3.194.534-3.194h1.225l-.143.709h.74l-.167,1.125h-.742c-.142.89-.345,2-.347,2.146,0,.241.129.347.422.347a1,1,0,0,0,.332-.044l-.163,1.037m3.755-.038a4.179,4.179,0,0,1-1.257.19,1.862,1.862,0,0,1-2.085-2.088c0-1.6.909-2.778,2.143-2.778A1.564,1.564,0,0,1,120,209.347a5.028,5.028,0,0,1-.151,1.151h-2.439c-.082.679.352.962,1.064.962a2.9,2.9,0,0,0,1.273-.295l-.2,1.164Zm-.688-2.775c.007-.1.13-.836-.57-.836-.39,0-.669.3-.783.836Zm-7.8-.317a1.366,1.366,0,0,0,.938,1.307c.5.234.576.3.576.516,0,.292-.22.424-.707.424a3.465,3.465,0,0,1-1.1-.185s-.162,1.032-.169,1.081a5.678,5.678,0,0,0,1.282.138c1.3,0,1.9-.495,1.9-1.565a1.282,1.282,0,0,0-.868-1.3c-.517-.237-.576-.29-.576-.509,0-.253.2-.382.6-.382a6.766,6.766,0,0,1,.885.07l.175-1.086a8.347,8.347,0,0,0-1.084-.091c-1.378,0-1.855.72-1.851,1.584m14.483-1.461a2.352,2.352,0,0,1,1.1.311l.2-1.249a3.615,3.615,0,0,0-1.354-.487,2.453,2.453,0,0,0-2.012,1.084c-.715-.237-1.009.242-1.369.719l-.32.075a2.361,2.361,0,0,0,.039-.471H120.7c-.155,1.449-.428,2.916-.643,4.367l-.056.315h1.232c.206-1.337.318-2.192.387-2.772l.464-.258c.069-.258.286-.345.722-.335a5.246,5.246,0,0,0-.087.96c0,1.531.826,2.485,2.153,2.485a3.862,3.862,0,0,0,1.089-.168l.217-1.312a2.394,2.394,0,0,1-1.047.3c-.716,0-1.15-.529-1.15-1.4,0-1.268.645-2.156,1.564-2.156" transform="translate(498.079 5389.704)"/>
    <path id="Path_218" data-name="Path 218" d="M112.005,211.953h-1.232l.706-4.424-1.576,4.424h-.84l-.1-4.4-.742,4.4h-1.153l.963-5.755H109.8l.05,3.563,1.2-3.563h1.913l-.953,5.755" transform="translate(492.819 5389.847)" fill="#fff"/>
    <path id="Path_219" data-name="Path 219" d="M561.089,211.6l-.273,1.663a1.541,1.541,0,0,0-1.177-.764,1.909,1.909,0,0,0-1.558,1.165,10.218,10.218,0,0,1-1.049-.288v0a6.929,6.929,0,0,0,.055-.7h-1.132c-.154,1.449-.428,2.916-.642,4.367l-.056.315h1.232c.167-1.081.294-1.978.388-2.69.421-.38.632-.712,1.057-.69a4.011,4.011,0,0,0-.3,1.518c0,1.17.592,1.942,1.488,1.942a1.452,1.452,0,0,0,1.136-.517l-.058.435h1.165l.938-5.755Zm-1.541,4.674c-.419,0-.631-.31-.631-.923,0-.92.4-1.573.955-1.573.423,0,.652.323.652.917,0,.928-.4,1.578-.977,1.578Z" transform="translate(72.962 5384.787)"/>
    <path id="Path_220" data-name="Path 220" d="M195.881,207.736a2.065,2.065,0,0,0-.275-.019c-.7,0-1.052.239-1.052.712a.43.43,0,0,0,.441.477c.5,0,.864-.478.885-1.17Zm.9,2.085h-1.021l.023-.484a1.547,1.547,0,0,1-1.291.566,1.152,1.152,0,0,1-1.126-1.279c0-1.14.8-1.8,2.163-1.8a4.15,4.15,0,0,1,.5.036,1.151,1.151,0,0,0,.048-.3c0-.31-.214-.425-.79-.425a4.115,4.115,0,0,0-1.3.21c.013-.077.171-1.052.171-1.052a4.893,4.893,0,0,1,1.474-.248c1.058,0,1.619.475,1.618,1.372a6.026,6.026,0,0,1-.1.928c-.107.678-.336,2.132-.367,2.485Zm16.524-5.6-.2,1.25a2.354,2.354,0,0,0-1.1-.311c-.92,0-1.565.889-1.565,2.156,0,.874.433,1.4,1.15,1.4a2.391,2.391,0,0,0,1.047-.3l-.216,1.312a3.842,3.842,0,0,1-1.089.169c-1.326,0-2.153-.954-2.153-2.485,0-2.058,1.142-3.5,2.775-3.5a4.272,4.272,0,0,1,1.354.3m1.988,3.515a2.061,2.061,0,0,0-.275-.019c-.7,0-1.052.239-1.052.712a.43.43,0,0,0,.441.477c.5,0,.864-.478.885-1.17Zm.9,2.085h-1.021l.023-.484a1.548,1.548,0,0,1-1.291.566,1.152,1.152,0,0,1-1.126-1.279c0-1.14.8-1.8,2.163-1.8a4.151,4.151,0,0,1,.5.036,1.159,1.159,0,0,0,.048-.3c0-.31-.215-.425-.79-.425a4.117,4.117,0,0,0-1.3.21c.013-.077.171-1.052.171-1.052a4.892,4.892,0,0,1,1.474-.248c1.058,0,1.619.475,1.617,1.372a5.958,5.958,0,0,1-.1.928c-.106.678-.337,2.132-.367,2.485Zm-13.933-.071a2.818,2.818,0,0,1-.885.152.9.9,0,0,1-.974-1.028,10.838,10.838,0,0,1,.169-1.248c.071-.438.534-3.195.534-3.195h1.224l-.143.709h.628l-.167,1.125h-.631c-.142.891-.345,2-.347,2.146,0,.242.129.347.422.347a1,1,0,0,0,.332-.044l-.163,1.036m3.755-.037a4.19,4.19,0,0,1-1.257.19,1.862,1.862,0,0,1-2.085-2.088c0-1.6.909-2.778,2.143-2.778a1.564,1.564,0,0,1,1.654,1.694,5.037,5.037,0,0,1-.151,1.151h-2.439c-.083.679.352.962,1.064.962a2.891,2.891,0,0,0,1.273-.3l-.2,1.165Zm-.689-2.776c.007-.1.13-.836-.57-.836-.39,0-.669.3-.782.836Zm-7.8-.316a1.367,1.367,0,0,0,.938,1.307c.5.234.576.3.576.517,0,.292-.22.423-.707.423a3.47,3.47,0,0,1-1.1-.185s-.161,1.032-.169,1.081a5.716,5.716,0,0,0,1.282.139c1.3,0,1.9-.495,1.9-1.564a1.281,1.281,0,0,0-.868-1.3c-.516-.238-.576-.29-.576-.509,0-.253.205-.383.6-.383a6.787,6.787,0,0,1,.885.071l.175-1.086a8.345,8.345,0,0,0-1.084-.091c-1.378,0-1.855.719-1.851,1.585m25.189,3.2H221.54l.058-.436a1.451,1.451,0,0,1-1.136.517c-.9,0-1.487-.772-1.487-1.942,0-1.557.918-2.87,2-2.87a1.39,1.39,0,0,1,1.176.638l.273-1.663h1.215l-.938,5.756Zm-1.817-1.082c.574,0,.977-.65.977-1.577,0-.595-.229-.917-.653-.917-.559,0-.956.652-.956,1.573C220.256,208.43,220.469,208.74,220.888,208.74Zm-3.593-3.6c-.154,1.449-.428,2.916-.642,4.366l-.056.315h1.232c.441-2.862.547-3.421,1.238-3.351a4.6,4.6,0,0,1,.468-1.358c-.516-.107-.8.184-1.181.738a4.233,4.233,0,0,0,.073-.71h-1.132m-10.141,0c-.155,1.449-.429,2.916-.643,4.366l-.056.315h1.233c.44-2.862.547-3.421,1.237-3.351a4.631,4.631,0,0,1,.468-1.358c-.515-.107-.8.184-1.181.738a4.3,4.3,0,0,0,.073-.71h-1.131m16.093,4.314a.366.366,0,0,1,.366-.367h0a.366.366,0,0,1,.366.366h0a.366.366,0,1,1-.733,0Zm.366.278a.278.278,0,0,0,.278-.278h0a.278.278,0,0,0-.278-.279h0a.279.279,0,1,0,0,.557Zm-.05-.118h-.075v-.321h.136a.149.149,0,0,1,.082.016.1.1,0,0,1,.041.081.088.088,0,0,1-.056.083l.06.141h-.083l-.049-.127h-.055v.127Zm0-.182h.041a.1.1,0,0,0,.046-.006.044.044,0,0,0,.019-.037.042.042,0,0,0-.018-.033.106.106,0,0,0-.048-.005h-.04v.082Z" transform="translate(411.977 5391.979)" fill="#fff"/>
    <path id="Path_221" data-name="Path 221" d="M127.646,161.884l2.157-12.658h3.45l-2.159,12.658ZM143.559,149.5a8.909,8.909,0,0,0-3.092-.532c-3.409,0-5.81,1.717-5.831,4.177-.019,1.819,1.714,2.833,3.023,3.439,1.343.621,1.794,1.016,1.788,1.57-.009.849-1.072,1.236-2.064,1.236a7.235,7.235,0,0,1-3.247-.664l-.445-.2-.484,2.833a10.92,10.92,0,0,0,3.843.675c3.627,0,5.981-1.7,6.008-4.325.013-1.44-.906-2.536-2.9-3.439-1.206-.586-1.944-.976-1.937-1.569,0-.526.625-1.089,1.976-1.089a6.365,6.365,0,0,1,2.582.485l.309.146.468-2.743m8.878-.273h-2.666a1.716,1.716,0,0,0-1.807,1.05l-5.124,11.6h3.623s.592-1.56.726-1.9l4.419.005c.1.443.42,1.9.42,1.9h3.2l-2.792-12.65Zm-4.23,8.174c.285-.729,1.375-3.538,1.375-3.538-.02.034.283-.733.457-1.208l.233,1.091s.661,3.021.8,3.655h-2.864Zm-23.491-8.174-3.378,8.632-.36-1.754a9.879,9.879,0,0,0-4.778-5.31l3.089,11.07,3.65,0,5.432-12.634h-3.655" transform="translate(545.932 5443.805)" fill="#fff"/>
    <path id="Path_222" data-name="Path 222" d="M65.8,152.96H60.241l-.044.263c4.328,1.048,7.192,3.58,8.381,6.622l-1.21-5.817A1.444,1.444,0,0,0,65.8,152.96" transform="translate(598.314 5440.071)" fill="#fff"/>
    <path id="Path_224" data-name="Path 224" d="M349.186,73.447c0-3.268-1.583-5.847-4.609-5.847s-4.877,2.579-4.877,5.822c0,3.843,2.17,5.784,5.286,5.784a7.119,7.119,0,0,0,3.536-.83V75.822a6.779,6.779,0,0,1-3.128.7c-1.238,0-2.336-.434-2.477-1.941h6.243C349.161,74.418,349.186,73.754,349.186,73.447Zm-6.307-1.213c0-1.443.881-2.043,1.685-2.043.779,0,1.609.6,1.609,2.043Z" transform="translate(419.241 5527.117)" fill="#fff" fill-rule="evenodd"/>
    <path id="Path_225" data-name="Path 225" d="M263.677,67.6a3.607,3.607,0,0,0-2.5,1l-.166-.792H258.2V82.691l3.192-.677L261.4,78.4a3.6,3.6,0,0,0,2.26.8c2.285,0,4.366-1.838,4.366-5.886C268.018,69.617,265.911,67.6,263.677,67.6Zm-.766,8.8a1.908,1.908,0,0,1-1.507-.6l-.013-4.737a1.9,1.9,0,0,1,1.519-.626c1.162,0,1.966,1.3,1.966,2.975C264.877,75.12,264.086,76.4,262.911,76.4Z" transform="translate(490.336 5527.117)" fill="#fff" fill-rule="evenodd"/>
    <path id="Path_226" data-name="Path 226" d="M223.8,39.281l3.2-.689V36l-3.2.677Z" transform="translate(520.344 5554.682)" fill="#fff" fill-rule="evenodd"/>
    <rect id="Rectangle_199" data-name="Rectangle 199" width="3.205" height="11.171" transform="translate(744.144 5594.934)" fill="#fff"/>
    <path id="Path_227" data-name="Path 227" d="M176.662,69.343l-.2-.945H173.7V79.57h3.192V72a2.252,2.252,0,0,1,2.426-.664V68.4A2.167,2.167,0,0,0,176.662,69.343Z" transform="translate(564.047 5526.535)" fill="#fff" fill-rule="evenodd"/>
    <path id="Path_228" data-name="Path 228" d="M125.528,47.6l-3.115.664L122.4,58.49a3.208,3.208,0,0,0,3.307,3.281,4.931,4.931,0,0,0,2.234-.421V58.759c-.409.166-2.426.753-2.426-1.136V53.09h2.426V50.37h-2.426Z" transform="translate(608.798 5544.563)" fill="#fff" fill-rule="evenodd"/>
    <path id="Path_229" data-name="Path 229" d="M57.23,71.06c0-.5.409-.689,1.085-.689a7.121,7.121,0,0,1,3.166.817v-3a8.42,8.42,0,0,0-3.166-.587C55.724,67.6,54,68.953,54,71.213c0,3.524,4.852,2.962,4.852,4.481,0,.587-.511.779-1.226.779a7.947,7.947,0,0,1-3.485-1.021V78.49a8.85,8.85,0,0,0,3.485.728c2.656,0,4.481-1.315,4.481-3.6C62.094,71.813,57.23,72.49,57.23,71.06Z" transform="translate(668.465 5527.117)" fill="#fff" fill-rule="evenodd"/>
  </g>
</svg>
